Tour de France
…
tdf_winners %>% 
  group_by(winner_name) %>% 
  summarise(wins = n()) %>% 
  arrange(desc(wins))

## # A tibble: 63 x 2
##    winner_name       wins
##    <chr>            <int>
##  1 Lance Armstrong      7
##  2 Bernard Hinault      5
##  3 Eddy Merckx          5
##  4 Jacques Anquetil     5
##  5 Miguel Indurin      5
##  6 Chris Froome         4
##  7 Greg LeMond          3
##  8 Louison Bobet        3
##  9 Philippe Thys        3
## 10 Alberto Contador     2
## #  with 53 more rows

tdf_winners %>% 
  group_by(winner_team) %>% 
  summarise(wins = n()) %>% 
  arrange(desc(wins))

## # A tibble: 48 x 2
##    winner_team          wins
##    <chr>               <int>
##  1 France                 12
##  2 AlcyonDunlop           8
##  3 PeugeotWolber          7
##  4 Team Sky                6
##  5 U.S. Postal Service     6
##  6 Banesto                 5
##  7 Italy                   5
##  8 AutomotoHutchinson     3
##  9 Belgium                 3
## 10 La Sportive             3
## #  with 38 more rows

tdf_stages %>% 
  group_by(Winner) %>% 
  summarise(wins = n()) %>% 
  arrange(desc(wins))

## # A tibble: 875 x 2
##    Winner             wins
##    <chr>             <int>
##  1 Eddy Merckx          34
##  2 Mark Cavendish       30
##  3 Bernard Hinault      28
##  4 Andr Leducq         24
##  5 Andr Darrigade      22
##  6 Lance Armstrong      22
##  7 Nicolas Frantz       20
##  8 Franois Faber       18
##  9 Jean Alavoine        17
## 10 Charles Plissier    16
## #  with 865 more rows
…
